Tidying IPEDS Data in R | Arie Spirgel
…
Year, which can take on any integer value from 2012 to 2018.

This untidy format is exactly what makes IPEDS data tricky to work with. In contrast, tidy data - which means each variable is in its own column, each observation is in its own row, and each value is in its own cell1 - is advantageous not just for working with data in R, but other software as well (e.g., pivot tables in Excel).

Tidying the Data

The first step to tidying this data is to pivot it so that all of the column names that contain the type of headcount are in one column, and the actual headcounts are in a different column. To do that, I use the gather()2 function. I first provide gather() with the names of the two new variables that are being created - I call them variable and headcount, but they can be called anything you want - and then which columns I want pivoted from wide to long; here, I pivot everything from the 2nd column to the last column of the data set.

distance <- distance %>% 
  gather(variable, headcount, 2:ncol(.))

distance

## # A tibble: 285,600 x 3
##    `Institution Name`             variable                             headcount
##    <chr>                          <chr>                                    <dbl>
##  1 Educational Technical College… Students enrolled exclusively in di…        NA
##  2 A T Still University of Healt… Students enrolled exclusively in di…        NA
##  3 Aaniiih Nakoda College         Students enrolled exclusively in di…        NA
##  4 ABC Adult School               Students enrolled exclusively in di…        NA
##  5 ABC Beauty Academy             Students enrolled exclusively in di…        NA
##  6 ABCO Technology                Students enrolled exclusively in di…        NA
##  7 Abcott Institute               Students enrolled exclusively in di…        NA
##  8 Abdill Career College Inc      Students enrolled exclusively in di…        NA
##  9 Abilene Christian University   Students enrolled exclusively in di…        32
## 10 Abraham Baldwin Agricultural … Students enrolled exclusively in di…       377
## # … with 285,590 more rows

As you can see above, the data set now only has three columns, not 43. Same data, different layout. Looks better already, right?!?

We’re not done though. Remember, each row of the variable column contains three pieces of information: level, modality, and year. So for the next three steps I split that column apart so each of these variables are in their own column. First, I’ll make a new column for level.

There are countless ways of reaching the same endpoint in R, and in this instance, I use str_detect() to tell R to put “Undergraduate” in the level column if it detects the string “Undergraduate” in the variable column, and then perform the analogous task for “Graduate”.

distance <- distance %>% 
  mutate(level = case_when(
           str_detect(variable, "Undergraduate") ~ "Undergraduate",
           str_detect(variable, "Graduate") ~ "Graduate"))

distance

## # A tibble: 285,600 x 4
##    `Institution Name`          variable                        headcount level  
##    <chr>                       <chr>                               <dbl> <chr>  
##  1 Educational Technical Coll… Students enrolled exclusively …        NA Underg…
##  2 A T Still University of He… Students enrolled exclusively …        NA Underg…
##  3 Aaniiih Nakoda College      Students enrolled exclusively …        NA Underg…
##  4 ABC Adult School            Students enrolled exclusively …        NA Underg…
##  5 ABC Beauty Academy          Students enrolled exclusively …        NA Underg…
##  6 ABCO Technology             Students enrolled exclusively …        NA Underg…
##  7 Abcott Institute            Students enrolled exclusively …        NA Underg…
##  8 Abdill Career College Inc   Students enrolled exclusively …        NA Underg…
##  9 Abilene Christian Universi… Students enrolled exclusively …        32 Underg…
## 10 Abraham Baldwin Agricultur… Students enrolled exclusively …       377 Underg…
## # … with 285,590 more rows

See the new column on the end with level?

Next I do the same thing for modality: I tell R to look for specific strings, and make a new column based on those strings.

distance <- distance %>% 
         mutate(modality = case_when(
           str_detect(variable, "not enrolled in any") ~ "No Distance",
           str_detect(variable, "in some") ~ "Some Distance",
           str_detect(variable, "exclusively") ~ "Exclusively Distance"))

distance

## # A tibble: 285,600 x 5
##    `Institution Name`       variable                 headcount level  modality  
##    <chr>                    <chr>                        <dbl> <chr>  <chr>     
##  1 Educational Technical C… Students enrolled exclu…        NA Under… Exclusive…
##  2 A T Still University of… Students enrolled exclu…        NA Under… Exclusive…
##  3 Aaniiih Nakoda College   Students enrolled exclu…        NA Under… Exclusive…
##  4 ABC Adult School         Students enrolled exclu…        NA Under… Exclusive…
##  5 ABC Beauty Academy       Students enrolled exclu…        NA Under… Exclusive…
##  6 ABCO Technology          Students enrolled exclu…        NA Under… Exclusive…
##  7 Abcott Institute         Students enrolled exclu…        NA Under… Exclusive…
##  8 Abdill Career College I… Students enrolled exclu…        NA Under… Exclusive…
##  9 Abilene Christian Unive… Students enrolled exclu…        32 Under… Exclusive…
## 10 Abraham Baldwin Agricul… Students enrolled exclu…       377 Under… Exclusive…
## # … with 285,590 more rows
…
distance <- distance %>% 
  mutate(year = parse_number(variable))

The tidying is now done, and so although this next step isn’t necessary, renaming and reordering the variables and factor levels will make the data easier to work with.

# rename columns, reorder factor levels (e.g., Undergraduate before Graduate)
distance <- distance %>%
  select(institution_name = `Institution Name`, level,
         modality, year, headcount) %>% 
  mutate(level = fct_relevel(level, "Undergraduate"),
         modality = fct_relevel(modality, "Some Distance")) 

distance

## # A tibble: 285,600 x 5
##    institution_name                    level      modality        year headcount
##    <chr>                               <fct>      <fct>          <dbl>     <dbl>
##  1 Educational Technical College-Reci… Undergrad… Exclusively D…  2018        NA
##  2 A T Still University of Health Sci… Undergrad… Exclusively D…  2018        NA
##  3 Aaniiih Nakoda College              Undergrad… Exclusively D…  2018        NA
##  4 ABC Adult School                    Undergrad… Exclusively D…  2018        NA
##  5 ABC Beauty Academy                  Undergrad… Exclusively D…  2018        NA
##  6 ABCO Technology                     Undergrad… Exclusively D…  2018        NA
##  7 Abcott Institute                    Undergrad… Exclusively D…  2018        NA
##  8 Abdill Career College Inc           Undergrad… Exclusively D…  2018        NA
##  9 Abilene Christian University        Undergrad… Exclusively D…  2018        32
## 10 Abraham Baldwin Agricultural Colle… Undergrad… Exclusively D…  2018       377
## # … with 285,590 more rows
…
